…
    ##   mean_overlap sd_overlap
    ## 1    0.7838851 0.07344344

``` r
all_overlaps %>%
  group_by(location.bcr) %>%
  summarize(mean_overlap = mean(overlap),
            sd_overlap = sd(overlap))
```

    ## # A tibble: 36 x 3
    ##    location.bcr mean_overlap sd_overlap
    ##           <int>        <dbl>      <dbl>
    ##  1            2        0.817     0.0713
    ##  2            3        0.828     0.0131
    ##  3            4        0.830     0.0511
    ##  4            5        0.816     0.0551
    ##  5            6        0.796     0.0791
    ##  6            7        0.809     0.0123
    ##  7            8        0.822     0.0505
    ##  8            9        0.771     0.0823
    ##  9           10        0.800     0.0642
    ## 10           11        0.767     0.0658
    ## # … with 26 more rows
…
